<svg width="18" height="18" viewBox="0 0 18 18" fill="none" xmlns="http://www.w3.org/2000/svg">
<path d="M15.75 0H2.25C1.00951 0 0 1.00951 0 2.25V15.75C0 16.9905 1.00951 18 2.25 18H15.75C16.9905 18 18 16.9905 18 15.75V2.25C18 1.00951 16.9905 0 15.75 0ZM16.5 15.75C16.5 16.164 16.164 16.5 15.75 16.5H6.75V12.375C6.75 11.754 6.246 11.25 5.625 11.25H1.50005V2.25C1.50005 1.83595 1.83595 1.50005 2.25 1.50005H15.75C16.164 1.50005 16.5 1.83595 16.5 2.25V15.75Z" fill="#E6E8EB"/>
<path d="M14.2499 2.99994H9.74989C9.44695 2.99994 9.17242 3.183 9.05693 3.46274C8.94075 3.7433 9.00516 4.06575 9.21967 4.28026L10.9394 6.00003L7.71976 9.21971C7.42642 9.51305 7.42642 9.98697 7.71976 10.2802C7.86588 10.4264 8.058 10.5 8.24998 10.5C8.44197 10.5 8.63396 10.4264 8.78021 10.2802L11.9999 7.06049L13.7197 8.78026C13.8629 8.92349 14.0549 8.99998 14.2499 8.99998C14.3467 8.99998 14.4442 8.98117 14.5372 8.94299C14.8177 8.82668 15 8.55298 15 8.25003V3.75003C15 3.33598 14.6646 2.99994 14.2499 2.99994Z" fill="#E6E8EB"/>
</svg>
