<?xml version="1.0" encoding="UTF-8"?>
<svg width="26px" height="26px" viewBox="0 0 26 26" version="1.1" xmlns="http://www.w3.org/2000/svg" xmlns:xlink="http://www.w3.org/1999/xlink">
    <!-- Generator: Sketch 61.1 (89650) - https://sketch.com -->
    <title>icn_compliance copy</title>
    <desc>Created with Sketch.</desc>
    <g id="icn_compliance-copy" stroke="none" stroke-width="1" fill="none" fill-rule="evenodd" stroke-linecap="round" stroke-linejoin="round">
        <g id="Icon" transform="translate(1.000000, 1.000000)" stroke-width="2.4">
            <polyline id="Stroke-1" stroke="#2A529F" points="7.48363636 21.0545455 0.687272727 21.0545455 0.687272727 0.687272727 17.6727273 0.687272727 17.6727273 3.41454545"></polyline>
            <polyline id="Stroke-3" stroke="#0089FF" points="15.4145455 13.4072727 16.4072727 14.4109091 18.3927273 12.4254545"></polyline>
            <line x1="4.08" y1="5.20363636" x2="10.8654545" y2="5.20363636" id="Stroke-5" stroke="#2A529F"></line>
            <line x1="4.08" y1="16.5272727" x2="7.47272727" y2="16.5272727" id="Stroke-7" stroke="#2A529F"></line>
            <line x1="4.08" y1="8.97818182" x2="7.47272727" y2="8.97818182" id="Stroke-9" stroke="#2A529F"></line>
            <line x1="4.08" y1="12.7527273" x2="6.33818182" y2="12.7527273" id="Stroke-11" stroke="#2A529F"></line>
            <polyline id="Stroke-13" stroke="#0089FF" points="18.0763636 20.1818182 19.8872727 23.3236364 21.12 21.4690909 23.3236364 21.3490909 21.6 18.3490909"></polyline>
            <polyline id="Stroke-15" stroke="#0089FF" points="15.7418182 20.16 13.92 23.3236364 12.6872727 21.4690909 10.4836364 21.3490909 12.2072727 18.3490909"></polyline>
            <path d="M23.3236364,13.4072727 C23.3236364,14.2145455 22.2327273,14.8036364 21.96,15.5127273 C21.6872727,16.2218182 21.96,17.4 21.4363636,17.9454545 C20.9127273,18.4909091 19.7127273,18.1636364 18.9818182,18.4581818 C18.2509091,18.7527273 17.6945455,19.8218182 16.8981818,19.8218182 C16.1018182,19.8218182 15.5127273,18.7309091 14.8036364,18.4581818 C14.0945455,18.1854545 12.9054545,18.4581818 12.3490909,17.9454545 C11.7927273,17.4327273 12.1418182,16.2218182 11.8472727,15.5127273 C11.5527273,14.8036364 10.4836364,14.1818182 10.4836364,13.4072727 C10.4836364,12.6327273 11.5745455,12.0218182 11.8472727,11.3127273 C12.12,10.6036364 11.8472727,9.41454545 12.3490909,8.86909091 C12.8509091,8.32363636 14.0945455,8.66181927 14.8036364,8.35636364 C15.5127273,8.050908 16.1127273,7.00363636 16.8981818,7.00363636 C17.6836364,7.00363636 18.3054545,8.09454545 18.9818182,8.36727273 C19.6581818,8.64 20.88,8.36727273 21.4363636,8.88 C21.9927273,9.39272836 21.6436364,10.5927273 21.96,11.3236364 C22.2763636,12.0545455 23.3236364,12.6 23.3236364,13.4072727 Z" id="Stroke-17" stroke="#0089FF"></path>
        </g>
    </g>
</svg>