<?xml version="1.0" encoding="UTF-8"?>
<svg width="26px" height="26px" viewBox="0 0 26 26" version="1.1" xmlns="http://www.w3.org/2000/svg" xmlns:xlink="http://www.w3.org/1999/xlink">
    <!-- Generator: Sketch 61.1 (89650) - https://sketch.com -->
    <title>icn_support copy</title>
    <desc>Created with Sketch.</desc>
    <g id="icn_support-copy" stroke="none" stroke-width="1" fill="none" fill-rule="evenodd" stroke-linecap="round" stroke-linejoin="round">
        <g id="Icon" transform="translate(1.000000, 1.000000)" stroke-width="2.4">
            <path d="M2.94545455,12 L2.94545455,9.73090909 C2.96908364,4.73292545 7.00218655,0.680386909 12,0.632728364 L12,0.632727273 C16.5822982,0.607738909 20.4499418,4.03363745 20.9781818,8.58545455" id="Stroke-1" stroke="#2A529F"></path>
            <path d="M20.0072727,18.8181818 L21.0981818,18.8181818 C22.3513636,18.8181818 23.3672728,17.8022727 23.3672728,16.5490909 L23.3672728,14.2690909 C23.3675018,13.0327527 22.3779273,12.0237709 21.1418182,12 L20.0509091,12 L20.0072727,18.8181818 Z" id="Stroke-3" stroke="#0089FF"></path>
            <path d="M2.94545455,18.8181818 L4.03636364,18.8181818 L4.03636364,12 L2.94545455,12 C1.69720364,12.0118364 0.688195636,13.02084 0.676363636,14.2690909 L0.676363636,16.5490909 C0.688197818,17.7973418 1.69720582,18.8063455 2.94545455,18.8181818 Z" id="Stroke-5" stroke="#2A529F"></path>
            <path d="M20.5636364,18.7090909 L20.5636364,18.7090909 C20.5636364,20.6551418 18.9860509,22.2327273 17.04,22.2327273 L14.3127273,22.2327273" id="Stroke-7" stroke="#0089FF"></path>
            <path d="M13.0909091,23.3672727 L10.9090909,23.3672727 C10.3065927,23.3672727 9.81818182,22.8788509 9.81818182,22.2763636 C9.81818182,21.6738764 10.3066036,21.1854545 10.9090909,21.1854545 L13.0909091,21.1854545 C13.6933964,21.1854545 14.1818182,21.6738764 14.1818182,22.2763636 C14.1818182,22.8788509 13.6934073,23.3672727 13.0909091,23.3672727 Z" id="Stroke-9" stroke="#0089FF"></path>
        </g>
    </g>
</svg>